Cross Validation
…
As this shows, the rmse for the crossfold validations goes from a minimum of 0.2 to a maximum of 0.23, with a median of 0.22.

Quick Exercise Run the crossfold command again, but this time only 5 times. Then run it again, but 20 times. What happens to the RMSE?

Full Cross Validation: Random Partition

The crossv_mc command provides for a generalization of the crossfold command. For this command, we can specify the proportion to be randomly held out in each iteration, via test=p where p is the proportion to be held out.

pd_cv<-pd%>%
  crossv_mc(n=1000,test=.2)
pd_cv

## # A tibble: 1,000 x 3
##    train      test       .id  
##    <list>     <list>     <chr>
##  1 <resample> <resample> 0001 
##  2 <resample> <resample> 0002 
##  3 <resample> <resample> 0003 
##  4 <resample> <resample> 0004 
##  5 <resample> <resample> 0005 
##  6 <resample> <resample> 0006 
##  7 <resample> <resample> 0007 
##  8 <resample> <resample> 0008 
##  9 <resample> <resample> 0009 
## 10 <resample> <resample> 0010 
## # ... with 990 more rows

The pd_cv dataset is a dataset of 1000x2 datasets, with each row containing a training and testing dataset. The testing dataset is .2 of the sample, but its different each time.

Now we use the same approach, but with the MUCH larger qf_cv dataset. This will take a bit of time.

tic()
mod1_rmse_cv<-pd_cv %>% 
  mutate(train = map(train, as_tibble)) %>% ## Convert to tibbles
  mutate(model = map(train, ~ lm(mod1_formula, data = .)))%>%
  mutate(rmse = map2_dbl(model, test, rmse))%>% 
  select(.id, rmse) ## pull just id and rmse 

mod1_rmse_cv

## # A tibble: 1,000 x 2
##    .id    rmse
##    <chr> <dbl>
##  1 0001  0.212
##  2 0002  0.214
##  3 0003  0.216
##  4 0004  0.219
##  5 0005  0.217
##  6 0006  0.213
##  7 0007  0.211
##  8 0008  0.215
##  9 0009  0.204
## 10 0010  0.217
## # ... with 990 more rows
…
