K Means Clustering
…
Now well gather everything, so that we have just two variables: the proportion (as a number) and the variable (as a character).

sum2 <- gather(sum1, -cluster, key = variable, value = value)
sum2

## # A tibble: 72 x 3
##    cluster variable      value
##      <int> <chr>         <dbl>
##  1       1 sf.business  0.0146
##  2       2 sf.business  0.449 
##  3       3 sf.business  0.125 
##  4       4 sf.business  0.990 
##  5       1 sf.pleasure  0.509 
##  6       2 sf.pleasure  0.267 
##  7       3 sf.pleasure  0.528 
##  8       4 sf.pleasure  0     
##  9       1 sf.relatives 0.335 
## 10       2 sf.relatives 0.212 
## # ... with 62 more rows
…
